-- Merging decision tree log ---
manifest
ADDED from /home/jimmy/Documents/JavaScript/APP/Test/android/app/src/main/AndroidManifest.xml:1:1-26:12
INJECTED from /home/jimmy/Documents/JavaScript/APP/Test/android/app/src/main/AndroidManifest.xml:1:1-26:12
INJECTED from /home/jimmy/Documents/JavaScript/APP/Test/android/app/src/main/AndroidManifest.xml:1:1-26:12
INJECTED from /home/jimmy/Documents/JavaScript/APP/Test/android/app/src/main/AndroidManifest.xml:1:1-26:12
MERGED from /home/jimmy/Documents/JavaScript/APP/Test/android/app/src/main/AndroidManifest.xml:1:1-26:12
MERGED from [:react-native-fs] /home/jimmy/Documents/JavaScript/APP/Test/node_modules/react-native-fs/android/build/intermediates/library_manifest/debug/AndroidManifest.xml:2:1-13:12
MERGED from [:react-native-image-picker] /home/jimmy/Documents/JavaScript/APP/Test/node_modules/react-native-image-picker/android/build/intermediates/library_manifest/debug/AndroidManifest.xml:2:1-21:12
MERGED from [:rn-fetch-blob] /home/jimmy/Documents/JavaScript/APP/Test/node_modules/rn-fetch-blob/android/build/intermediates/library_manifest/debug/AndroidManifest.xml:2:1-47:12
MERGED from [com.facebook.react:react-native:0.61.5] /home/jimmy/.gradle/caches/transforms-2/files-2.1/f46be4016c960f2597e8be9943723047/AndroidManifest.xml:2:1-13:12
MERGED from [org.webkit:android-jsc:r245459] /home/jimmy/.gradle/caches/transforms-2/files-2.1/7808bd016c72e429a1654140f84f4c1a/AndroidManifest.xml:2:1-11:12
MERGED from [androidx.appcompat:appcompat:1.0.2] /home/jimmy/.gradle/caches/transforms-2/files-2.1/8dd41101e37e1e5b28d0a04da4c9a21a/AndroidManifest.xml:17:1-22:12
MERGED from [com.facebook.fresco:fresco:2.0.0] /home/jimmy/.gradle/caches/transforms-2/files-2.1/fbf9cc51ef5bb56180fe1d8f4a4a6e10/AndroidManifest.xml:2:1-9:12
MERGED from [com.facebook.fresco:imagepipeline-okhttp3:2.0.0] /home/jimmy/.gradle/caches/transforms-2/files-2.1/31aac0e17bae829691774a56bbaca5f3/AndroidManifest.xml:2:1-9:12
MERGED from [com.facebook.fresco:drawee:2.0.0] /home/jimmy/.gradle/caches/transforms-2/files-2.1/e138751b78180207d50d5408e8d6087c/AndroidManifest.xml:2:1-9:12
MERGED from [com.facebook.fresco:nativeimagefilters:2.0.0] /home/jimmy/.gradle/caches/transforms-2/files-2.1/36b7302b09ef7c2f6d444c6b66fd13d4/AndroidManifest.xml:2:1-9:12
MERGED from [com.facebook.fresco:imagepipeline:2.0.0] /home/jimmy/.gradle/caches/transforms-2/files-2.1/97d6156227c22de414143eada7f1fdaf/AndroidManifest.xml:2:1-9:12
MERGED from [com.facebook.fresco:nativeimagetranscoder:2.0.0] /home/jimmy/.gradle/caches/transforms-2/files-2.1/4ce9925fea19d8bd8fbae6c3a7daeef8/AndroidManifest.xml:2:1-9:12
MERGED from [com.facebook.fresco:imagepipeline-base:2.0.0] /home/jimmy/.gradle/caches/transforms-2/files-2.1/2a3b83694ab9cdcfea5396c09b84ffbd/AndroidManifest.xml:2:1-9:12
MERGED from [com.facebook.soloader:soloader:0.6.0] /home/jimmy/.gradle/caches/transforms-2/files-2.1/06df65d2c2799ecbd0e198e6c13a34d1/AndroidManifest.xml:2:1-13:12
MERGED from [androidx.fragment:fragment:1.0.0] /home/jimmy/.gradle/caches/transforms-2/files-2.1/9b63abaf246c62ac92271c9a45ea34b6/AndroidManifest.xml:17:1-22:12
MERGED from [androidx.vectordrawable:vectordrawable-animated:1.0.0] /home/jimmy/.gradle/caches/transforms-2/files-2.1/51fe87baed646f3a7199e556eee89bf0/AndroidManifest.xml:17:1-22:12
MERGED from [androidx.legacy:legacy-support-core-ui:1.0.0] /home/jimmy/.gradle/caches/transforms-2/files-2.1/ae33755dd3241ae7456a853492ae16c5/AndroidManifest.xml:17:1-22:12
MERGED from [androidx.legacy:legacy-support-core-utils:1.0.0] /home/jimmy/.gradle/caches/transforms-2/files-2.1/8c674c28867e98484aaca7234d92883d/AndroidManifest.xml:17:1-22:12
MERGED from [androidx.vectordrawable:vectordrawable:1.0.1] /home/jimmy/.gradle/caches/transforms-2/files-2.1/d9cfca68c70d677e3d2e5aa72c9096e1/AndroidManifest.xml:17:1-22:12
MERGED from [androidx.loader:loader:1.0.0] /home/jimmy/.gradle/caches/transforms-2/files-2.1/ee5c29093f9337fbbf9a1d851ef42807/AndroidManifest.xml:17:1-22:12
MERGED from [androidx.viewpager:viewpager:1.0.0] /home/jimmy/.gradle/caches/transforms-2/files-2.1/be3c02aa07b8a640e8afce8c9bb5db50/AndroidManifest.xml:17:1-22:12
MERGED from [androidx.coordinatorlayout:coordinatorlayout:1.0.0] /home/jimmy/.gradle/caches/transforms-2/files-2.1/02eb1287bc84ffe38cca010efe04e9f4/AndroidManifest.xml:17:1-22:12
MERGED from [androidx.drawerlayout:drawerlayout:1.0.0] /home/jimmy/.gradle/caches/transforms-2/files-2.1/a80d2f2dee7dd63d989b832a38e6f3ec/AndroidManifest.xml:17:1-22:12
MERGED from [androidx.slidingpanelayout:slidingpanelayout:1.0.0] /home/jimmy/.gradle/caches/transforms-2/files-2.1/ba2af63c71650402374aa728f7d9e600/AndroidManifest.xml:17:1-22:12
MERGED from [androidx.customview:customview:1.0.0] /home/jimmy/.gradle/caches/transforms-2/files-2.1/5c1a7954a89b9b8fe01f5627a31f5cee/AndroidManifest.xml:17:1-22:12
MERGED from [androidx.swiperefreshlayout:swiperefreshlayout:1.0.0] /home/jimmy/.gradle/caches/transforms-2/files-2.1/f3aac72a8f957709a447a6e8f8bcc415/AndroidManifest.xml:17:1-22:12
MERGED from [androidx.asynclayoutinflater:asynclayoutinflater:1.0.0] /home/jimmy/.gradle/caches/transforms-2/files-2.1/cd4f41bc994658726063b15e642417a7/AndroidManifest.xml:17:1-22:12
MERGED from [androidx.core:core:1.0.1] /home/jimmy/.gradle/caches/transforms-2/files-2.1/b1348f3803dd3ff047dc8b46ffc000eb/AndroidManifest.xml:17:1-24:12
MERGED from [androidx.versionedparcelable:versionedparcelable:1.0.0] /home/jimmy/.gradle/caches/transforms-2/files-2.1/517465e01c643ce10737a7e15ef11347/AndroidManifest.xml:17:1-25:12
MERGED from [androidx.cursoradapter:cursoradapter:1.0.0] /home/jimmy/.gradle/caches/transforms-2/files-2.1/8f95613598a431b125eed32ae5fdac72/AndroidManifest.xml:17:1-22:12
MERGED from [androidx.lifecycle:lifecycle-runtime:2.0.0] /home/jimmy/.gradle/caches/transforms-2/files-2.1/68479e334b2782566cfd9b55edccb61d/AndroidManifest.xml:17:1-22:12
MERGED from [androidx.documentfile:documentfile:1.0.0] /home/jimmy/.gradle/caches/transforms-2/files-2.1/6deb256319ab8a7505775c773d8aee9c/AndroidManifest.xml:17:1-22:12
MERGED from [androidx.localbroadcastmanager:localbroadcastmanager:1.0.0] /home/jimmy/.gradle/caches/transforms-2/files-2.1/4d8e628e8aefb8122a8499e03c1a760c/AndroidManifest.xml:17:1-22:12
MERGED from [androidx.print:print:1.0.0] /home/jimmy/.gradle/caches/transforms-2/files-2.1/5a8f651c30fda4031f4c9cce65a085e3/AndroidManifest.xml:17:1-22:12
MERGED from [androidx.lifecycle:lifecycle-viewmodel:2.0.0] /home/jimmy/.gradle/caches/transforms-2/files-2.1/413ebdc48e5535042727958fab908fbd/AndroidManifest.xml:17:1-22:12
MERGED from [androidx.lifecycle:lifecycle-livedata:2.0.0] /home/jimmy/.gradle/caches/transforms-2/files-2.1/eb12e26f7414a42189c5fcf023e5b20d/AndroidManifest.xml:17:1-22:12
MERGED from [androidx.lifecycle:lifecycle-livedata-core:2.0.0] /home/jimmy/.gradle/caches/transforms-2/files-2.1/39073f9813d11de99c151ce6bfd09211/AndroidManifest.xml:17:1-22:12
MERGED from [androidx.arch.core:core-runtime:2.0.0] /home/jimmy/.gradle/caches/transforms-2/files-2.1/70a5806b013ce239e3daa36981202dcd/AndroidManifest.xml:17:1-22:12
MERGED from [androidx.interpolator:interpolator:1.0.0] /home/jimmy/.gradle/caches/transforms-2/files-2.1/b4c720013398b3bf7f162467928a7a1c/AndroidManifest.xml:17:1-22:12
MERGED from [com.facebook.fresco:fbcore:2.0.0] /home/jimmy/.gradle/caches/transforms-2/files-2.1/f4859e76bb49e1584bedfcaf004e5c46/AndroidManifest.xml:2:1-9:12
INJECTED from /home/jimmy/Documents/JavaScript/APP/Test/android/app/src/debug/AndroidManifest.xml:2:1-8:12
INJECTED from /home/jimmy/Documents/JavaScript/APP/Test/android/app/src/debug/AndroidManifest.xml:2:1-8:12
INJECTED from /home/jimmy/Documents/JavaScript/APP/Test/android/app/src/debug/AndroidManifest.xml:2:1-8:12
	package
		ADDED from /home/jimmy/Documents/JavaScript/APP/Test/android/app/src/main/AndroidManifest.xml:2:3-21
		INJECTED from /home/jimmy/Documents/JavaScript/APP/Test/android/app/src/main/AndroidManifest.xml
		ADDED from /home/jimmy/Documents/JavaScript/APP/Test/android/app/src/main/AndroidManifest.xml:2:3-21
		INJECTED from /home/jimmy/Documents/JavaScript/APP/Test/android/app/src/debug/AndroidManifest.xml
	android:versionName
		INJECTED from /home/jimmy/Documents/JavaScript/APP/Test/android/app/src/main/AndroidManifest.xml
		ADDED from /home/jimmy/Documents/JavaScript/APP/Test/android/app/src/main/AndroidManifest.xml:1:1-26:12
		INJECTED from /home/jimmy/Documents/JavaScript/APP/Test/android/app/src/debug/AndroidManifest.xml
	xmlns:tools
		ADDED from /home/jimmy/Documents/JavaScript/APP/Test/android/app/src/debug/AndroidManifest.xml:3:5-51
	android:versionCode
		INJECTED from /home/jimmy/Documents/JavaScript/APP/Test/android/app/src/main/AndroidManifest.xml
		ADDED from /home/jimmy/Documents/JavaScript/APP/Test/android/app/src/main/AndroidManifest.xml:1:1-26:12
		INJECTED from /home/jimmy/Documents/JavaScript/APP/Test/android/app/src/debug/AndroidManifest.xml
	xmlns:android
		ADDED from /home/jimmy/Documents/JavaScript/APP/Test/android/app/src/main/AndroidManifest.xml:1:11-69
uses-permission#android.permission.INTERNET
ADDED from /home/jimmy/Documents/JavaScript/APP/Test/android/app/src/main/AndroidManifest.xml:4:5-67
MERGED from [:rn-fetch-blob] /home/jimmy/Documents/JavaScript/APP/Test/node_modules/rn-fetch-blob/android/build/intermediates/library_manifest/debug/AndroidManifest.xml:15:5-67
MERGED from [:rn-fetch-blob] /home/jimmy/Documents/JavaScript/APP/Test/node_modules/rn-fetch-blob/android/build/intermediates/library_manifest/debug/AndroidManifest.xml:15:5-67
	android:name
		ADDED from /home/jimmy/Documents/JavaScript/APP/Test/android/app/src/main/AndroidManifest.xml:4:22-64
application
ADDED from /home/jimmy/Documents/JavaScript/APP/Test/android/app/src/main/AndroidManifest.xml:6:5-24:19
MERGED from /home/jimmy/Documents/JavaScript/APP/Test/android/app/src/main/AndroidManifest.xml:6:5-24:19
MERGED from /home/jimmy/Documents/JavaScript/APP/Test/android/app/src/main/AndroidManifest.xml:6:5-24:19
MERGED from [:react-native-image-picker] /home/jimmy/Documents/JavaScript/APP/Test/node_modules/react-native-image-picker/android/build/intermediates/library_manifest/debug/AndroidManifest.xml:9:5-19:19
MERGED from [:react-native-image-picker] /home/jimmy/Documents/JavaScript/APP/Test/node_modules/react-native-image-picker/android/build/intermediates/library_manifest/debug/AndroidManifest.xml:9:5-19:19
MERGED from [:rn-fetch-blob] /home/jimmy/Documents/JavaScript/APP/Test/node_modules/rn-fetch-blob/android/build/intermediates/library_manifest/debug/AndroidManifest.xml:35:5-45:19
MERGED from [:rn-fetch-blob] /home/jimmy/Documents/JavaScript/APP/Test/node_modules/rn-fetch-blob/android/build/intermediates/library_manifest/debug/AndroidManifest.xml:35:5-45:19
MERGED from [com.facebook.react:react-native:0.61.5] /home/jimmy/.gradle/caches/transforms-2/files-2.1/f46be4016c960f2597e8be9943723047/AndroidManifest.xml:11:5-20
MERGED from [com.facebook.react:react-native:0.61.5] /home/jimmy/.gradle/caches/transforms-2/files-2.1/f46be4016c960f2597e8be9943723047/AndroidManifest.xml:11:5-20
MERGED from [com.facebook.soloader:soloader:0.6.0] /home/jimmy/.gradle/caches/transforms-2/files-2.1/06df65d2c2799ecbd0e198e6c13a34d1/AndroidManifest.xml:11:5-20
MERGED from [com.facebook.soloader:soloader:0.6.0] /home/jimmy/.gradle/caches/transforms-2/files-2.1/06df65d2c2799ecbd0e198e6c13a34d1/AndroidManifest.xml:11:5-20
MERGED from [androidx.core:core:1.0.1] /home/jimmy/.gradle/caches/transforms-2/files-2.1/b1348f3803dd3ff047dc8b46ffc000eb/AndroidManifest.xml:22:5-89
MERGED from [androidx.core:core:1.0.1] /home/jimmy/.gradle/caches/transforms-2/files-2.1/b1348f3803dd3ff047dc8b46ffc000eb/AndroidManifest.xml:22:5-89
MERGED from [androidx.versionedparcelable:versionedparcelable:1.0.0] /home/jimmy/.gradle/caches/transforms-2/files-2.1/517465e01c643ce10737a7e15ef11347/AndroidManifest.xml:22:5-23:19
MERGED from [androidx.versionedparcelable:versionedparcelable:1.0.0] /home/jimmy/.gradle/caches/transforms-2/files-2.1/517465e01c643ce10737a7e15ef11347/AndroidManifest.xml:22:5-23:19
	android:appComponentFactory
		ADDED from [androidx.core:core:1.0.1] /home/jimmy/.gradle/caches/transforms-2/files-2.1/b1348f3803dd3ff047dc8b46ffc000eb/AndroidManifest.xml:22:18-86
	android:label
		ADDED from /home/jimmy/Documents/JavaScript/APP/Test/android/app/src/main/AndroidManifest.xml:8:7-39
		ADDED from /home/jimmy/Documents/JavaScript/APP/Test/android/app/src/main/AndroidManifest.xml:8:7-39
	tools:ignore
		ADDED from /home/jimmy/Documents/JavaScript/APP/Test/android/app/src/debug/AndroidManifest.xml:7:75-114
	android:roundIcon
		ADDED from /home/jimmy/Documents/JavaScript/APP/Test/android/app/src/main/AndroidManifest.xml:10:7-52
		ADDED from /home/jimmy/Documents/JavaScript/APP/Test/android/app/src/main/AndroidManifest.xml:10:7-52
	tools:targetApi
		ADDED from /home/jimmy/Documents/JavaScript/APP/Test/android/app/src/debug/AndroidManifest.xml:7:54-74
	android:icon
		ADDED from /home/jimmy/Documents/JavaScript/APP/Test/android/app/src/main/AndroidManifest.xml:9:7-41
		ADDED from /home/jimmy/Documents/JavaScript/APP/Test/android/app/src/main/AndroidManifest.xml:9:7-41
	android:allowBackup
		ADDED from /home/jimmy/Documents/JavaScript/APP/Test/android/app/src/main/AndroidManifest.xml:11:7-34
		ADDED from /home/jimmy/Documents/JavaScript/APP/Test/android/app/src/main/AndroidManifest.xml:11:7-34
	android:theme
		ADDED from /home/jimmy/Documents/JavaScript/APP/Test/android/app/src/main/AndroidManifest.xml:12:7-38
		ADDED from /home/jimmy/Documents/JavaScript/APP/Test/android/app/src/main/AndroidManifest.xml:12:7-38
	android:usesCleartextTraffic
		ADDED from /home/jimmy/Documents/JavaScript/APP/Test/android/app/src/debug/AndroidManifest.xml:7:18-53
	android:name
		ADDED from /home/jimmy/Documents/JavaScript/APP/Test/android/app/src/main/AndroidManifest.xml:7:7-38
		ADDED from /home/jimmy/Documents/JavaScript/APP/Test/android/app/src/main/AndroidManifest.xml:7:7-38
activity#com.test.MainActivity
ADDED from /home/jimmy/Documents/JavaScript/APP/Test/android/app/src/main/AndroidManifest.xml:13:7-22:18
	android:label
		ADDED from /home/jimmy/Documents/JavaScript/APP/Test/android/app/src/main/AndroidManifest.xml:15:9-41
	android:windowSoftInputMode
		ADDED from /home/jimmy/Documents/JavaScript/APP/Test/android/app/src/main/AndroidManifest.xml:17:9-51
	android:configChanges
		ADDED from /home/jimmy/Documents/JavaScript/APP/Test/android/app/src/main/AndroidManifest.xml:16:9-79
	android:name
		ADDED from /home/jimmy/Documents/JavaScript/APP/Test/android/app/src/main/AndroidManifest.xml:14:9-37
intent-filter#action:name:android.intent.action.MAIN+category:name:android.intent.category.LAUNCHER
ADDED from /home/jimmy/Documents/JavaScript/APP/Test/android/app/src/main/AndroidManifest.xml:18:9-21:25
action#android.intent.action.MAIN
ADDED from /home/jimmy/Documents/JavaScript/APP/Test/android/app/src/main/AndroidManifest.xml:19:13-65
	android:name
		ADDED from /home/jimmy/Documents/JavaScript/APP/Test/android/app/src/main/AndroidManifest.xml:19:21-62
category#android.intent.category.LAUNCHER
ADDED from /home/jimmy/Documents/JavaScript/APP/Test/android/app/src/main/AndroidManifest.xml:20:13-73
	android:name
		ADDED from /home/jimmy/Documents/JavaScript/APP/Test/android/app/src/main/AndroidManifest.xml:20:23-70
activity#com.facebook.react.devsupport.DevSettingsActivity
ADDED from /home/jimmy/Documents/JavaScript/APP/Test/android/app/src/main/AndroidManifest.xml:23:7-84
	android:name
		ADDED from /home/jimmy/Documents/JavaScript/APP/Test/android/app/src/main/AndroidManifest.xml:23:17-81
uses-sdk
INJECTED from /home/jimmy/Documents/JavaScript/APP/Test/android/app/src/main/AndroidManifest.xml reason: use-sdk injection requested
INJECTED from /home/jimmy/Documents/JavaScript/APP/Test/android/app/src/main/AndroidManifest.xml
INJECTED from /home/jimmy/Documents/JavaScript/APP/Test/android/app/src/main/AndroidManifest.xml
MERGED from [:react-native-fs] /home/jimmy/Documents/JavaScript/APP/Test/node_modules/react-native-fs/android/build/intermediates/library_manifest/debug/AndroidManifest.xml:7:5-9:41
MERGED from [:react-native-fs] /home/jimmy/Documents/JavaScript/APP/Test/node_modules/react-native-fs/android/build/intermediates/library_manifest/debug/AndroidManifest.xml:7:5-9:41
MERGED from [:react-native-image-picker] /home/jimmy/Documents/JavaScript/APP/Test/node_modules/react-native-image-picker/android/build/intermediates/library_manifest/debug/AndroidManifest.xml:5:5-7:41
MERGED from [:react-native-image-picker] /home/jimmy/Documents/JavaScript/APP/Test/node_modules/react-native-image-picker/android/build/intermediates/library_manifest/debug/AndroidManifest.xml:5:5-7:41
MERGED from [:rn-fetch-blob] /home/jimmy/Documents/JavaScript/APP/Test/node_modules/rn-fetch-blob/android/build/intermediates/library_manifest/debug/AndroidManifest.xml:7:5-9:41
MERGED from [:rn-fetch-blob] /home/jimmy/Documents/JavaScript/APP/Test/node_modules/rn-fetch-blob/android/build/intermediates/library_manifest/debug/AndroidManifest.xml:7:5-9:41
MERGED from [com.facebook.react:react-native:0.61.5] /home/jimmy/.gradle/caches/transforms-2/files-2.1/f46be4016c960f2597e8be9943723047/AndroidManifest.xml:7:5-9:41
MERGED from [com.facebook.react:react-native:0.61.5] /home/jimmy/.gradle/caches/transforms-2/files-2.1/f46be4016c960f2597e8be9943723047/AndroidManifest.xml:7:5-9:41
MERGED from [org.webkit:android-jsc:r245459] /home/jimmy/.gradle/caches/transforms-2/files-2.1/7808bd016c72e429a1654140f84f4c1a/AndroidManifest.xml:7:5-9:41
MERGED from [org.webkit:android-jsc:r245459] /home/jimmy/.gradle/caches/transforms-2/files-2.1/7808bd016c72e429a1654140f84f4c1a/AndroidManifest.xml:7:5-9:41
MERGED from [androidx.appcompat:appcompat:1.0.2] /home/jimmy/.gradle/caches/transforms-2/files-2.1/8dd41101e37e1e5b28d0a04da4c9a21a/AndroidManifest.xml:20:5-44
MERGED from [androidx.appcompat:appcompat:1.0.2] /home/jimmy/.gradle/caches/transforms-2/files-2.1/8dd41101e37e1e5b28d0a04da4c9a21a/AndroidManifest.xml:20:5-44
MERGED from [com.facebook.fresco:fresco:2.0.0] /home/jimmy/.gradle/caches/transforms-2/files-2.1/fbf9cc51ef5bb56180fe1d8f4a4a6e10/AndroidManifest.xml:5:5-7:41
MERGED from [com.facebook.fresco:fresco:2.0.0] /home/jimmy/.gradle/caches/transforms-2/files-2.1/fbf9cc51ef5bb56180fe1d8f4a4a6e10/AndroidManifest.xml:5:5-7:41
MERGED from [com.facebook.fresco:imagepipeline-okhttp3:2.0.0] /home/jimmy/.gradle/caches/transforms-2/files-2.1/31aac0e17bae829691774a56bbaca5f3/AndroidManifest.xml:5:5-7:41
MERGED from [com.facebook.fresco:imagepipeline-okhttp3:2.0.0] /home/jimmy/.gradle/caches/transforms-2/files-2.1/31aac0e17bae829691774a56bbaca5f3/AndroidManifest.xml:5:5-7:41
MERGED from [com.facebook.fresco:drawee:2.0.0] /home/jimmy/.gradle/caches/transforms-2/files-2.1/e138751b78180207d50d5408e8d6087c/AndroidManifest.xml:5:5-7:41
MERGED from [com.facebook.fresco:drawee:2.0.0] /home/jimmy/.gradle/caches/transforms-2/files-2.1/e138751b78180207d50d5408e8d6087c/AndroidManifest.xml:5:5-7:41
MERGED from [com.facebook.fresco:nativeimagefilters:2.0.0] /home/jimmy/.gradle/caches/transforms-2/files-2.1/36b7302b09ef7c2f6d444c6b66fd13d4/AndroidManifest.xml:5:5-7:41
MERGED from [com.facebook.fresco:nativeimagefilters:2.0.0] /home/jimmy/.gradle/caches/transforms-2/files-2.1/36b7302b09ef7c2f6d444c6b66fd13d4/AndroidManifest.xml:5:5-7:41
MERGED from [com.facebook.fresco:imagepipeline:2.0.0] /home/jimmy/.gradle/caches/transforms-2/files-2.1/97d6156227c22de414143eada7f1fdaf/AndroidManifest.xml:5:5-7:41
MERGED from [com.facebook.fresco:imagepipeline:2.0.0] /home/jimmy/.gradle/caches/transforms-2/files-2.1/97d6156227c22de414143eada7f1fdaf/AndroidManifest.xml:5:5-7:41
MERGED from [com.facebook.fresco:nativeimagetranscoder:2.0.0] /home/jimmy/.gradle/caches/transforms-2/files-2.1/4ce9925fea19d8bd8fbae6c3a7daeef8/AndroidManifest.xml:5:5-7:41
MERGED from [com.facebook.fresco:nativeimagetranscoder:2.0.0] /home/jimmy/.gradle/caches/transforms-2/files-2.1/4ce9925fea19d8bd8fbae6c3a7daeef8/AndroidManifest.xml:5:5-7:41
MERGED from [com.facebook.fresco:imagepipeline-base:2.0.0] /home/jimmy/.gradle/caches/transforms-2/files-2.1/2a3b83694ab9cdcfea5396c09b84ffbd/AndroidManifest.xml:5:5-7:41
MERGED from [com.facebook.fresco:imagepipeline-base:2.0.0] /home/jimmy/.gradle/caches/transforms-2/files-2.1/2a3b83694ab9cdcfea5396c09b84ffbd/AndroidManifest.xml:5:5-7:41
MERGED from [com.facebook.soloader:soloader:0.6.0] /home/jimmy/.gradle/caches/transforms-2/files-2.1/06df65d2c2799ecbd0e198e6c13a34d1/AndroidManifest.xml:7:5-9:41
MERGED from [com.facebook.soloader:soloader:0.6.0] /home/jimmy/.gradle/caches/transforms-2/files-2.1/06df65d2c2799ecbd0e198e6c13a34d1/AndroidManifest.xml:7:5-9:41
MERGED from [androidx.fragment:fragment:1.0.0] /home/jimmy/.gradle/caches/transforms-2/files-2.1/9b63abaf246c62ac92271c9a45ea34b6/AndroidManifest.xml:20:5-44
MERGED from [androidx.fragment:fragment:1.0.0] /home/jimmy/.gradle/caches/transforms-2/files-2.1/9b63abaf246c62ac92271c9a45ea34b6/AndroidManifest.xml:20:5-44
MERGED from [androidx.vectordrawable:vectordrawable-animated:1.0.0] /home/jimmy/.gradle/caches/transforms-2/files-2.1/51fe87baed646f3a7199e556eee89bf0/AndroidManifest.xml:20:5-44
MERGED from [androidx.vectordrawable:vectordrawable-animated:1.0.0] /home/jimmy/.gradle/caches/transforms-2/files-2.1/51fe87baed646f3a7199e556eee89bf0/AndroidManifest.xml:20:5-44
MERGED from [androidx.legacy:legacy-support-core-ui:1.0.0] /home/jimmy/.gradle/caches/transforms-2/files-2.1/ae33755dd3241ae7456a853492ae16c5/AndroidManifest.xml:20:5-44
MERGED from [androidx.legacy:legacy-support-core-ui:1.0.0] /home/jimmy/.gradle/caches/transforms-2/files-2.1/ae33755dd3241ae7456a853492ae16c5/AndroidManifest.xml:20:5-44
MERGED from [androidx.legacy:legacy-support-core-utils:1.0.0] /home/jimmy/.gradle/caches/transforms-2/files-2.1/8c674c28867e98484aaca7234d92883d/AndroidManifest.xml:20:5-44
MERGED from [androidx.legacy:legacy-support-core-utils:1.0.0] /home/jimmy/.gradle/caches/transforms-2/files-2.1/8c674c28867e98484aaca7234d92883d/AndroidManifest.xml:20:5-44
MERGED from [androidx.vectordrawable:vectordrawable:1.0.1] /home/jimmy/.gradle/caches/transforms-2/files-2.1/d9cfca68c70d677e3d2e5aa72c9096e1/AndroidManifest.xml:20:5-44
MERGED from [androidx.vectordrawable:vectordrawable:1.0.1] /home/jimmy/.gradle/caches/transforms-2/files-2.1/d9cfca68c70d677e3d2e5aa72c9096e1/AndroidManifest.xml:20:5-44
MERGED from [androidx.loader:loader:1.0.0] /home/jimmy/.gradle/caches/transforms-2/files-2.1/ee5c29093f9337fbbf9a1d851ef42807/AndroidManifest.xml:20:5-44
MERGED from [androidx.loader:loader:1.0.0] /home/jimmy/.gradle/caches/transforms-2/files-2.1/ee5c29093f9337fbbf9a1d851ef42807/AndroidManifest.xml:20:5-44
MERGED from [androidx.viewpager:viewpager:1.0.0] /home/jimmy/.gradle/caches/transforms-2/files-2.1/be3c02aa07b8a640e8afce8c9bb5db50/AndroidManifest.xml:20:5-44
MERGED from [androidx.viewpager:viewpager:1.0.0] /home/jimmy/.gradle/caches/transforms-2/files-2.1/be3c02aa07b8a640e8afce8c9bb5db50/AndroidManifest.xml:20:5-44
MERGED from [androidx.coordinatorlayout:coordinatorlayout:1.0.0] /home/jimmy/.gradle/caches/transforms-2/files-2.1/02eb1287bc84ffe38cca010efe04e9f4/AndroidManifest.xml:20:5-44
MERGED from [androidx.coordinatorlayout:coordinatorlayout:1.0.0] /home/jimmy/.gradle/caches/transforms-2/files-2.1/02eb1287bc84ffe38cca010efe04e9f4/AndroidManifest.xml:20:5-44
MERGED from [androidx.drawerlayout:drawerlayout:1.0.0] /home/jimmy/.gradle/caches/transforms-2/files-2.1/a80d2f2dee7dd63d989b832a38e6f3ec/AndroidManifest.xml:20:5-44
MERGED from [androidx.drawerlayout:drawerlayout:1.0.0] /home/jimmy/.gradle/caches/transforms-2/files-2.1/a80d2f2dee7dd63d989b832a38e6f3ec/AndroidManifest.xml:20:5-44
MERGED from [androidx.slidingpanelayout:slidingpanelayout:1.0.0] /home/jimmy/.gradle/caches/transforms-2/files-2.1/ba2af63c71650402374aa728f7d9e600/AndroidManifest.xml:20:5-44
MERGED from [androidx.slidingpanelayout:slidingpanelayout:1.0.0] /home/jimmy/.gradle/caches/transforms-2/files-2.1/ba2af63c71650402374aa728f7d9e600/AndroidManifest.xml:20:5-44
MERGED from [androidx.customview:customview:1.0.0] /home/jimmy/.gradle/caches/transforms-2/files-2.1/5c1a7954a89b9b8fe01f5627a31f5cee/AndroidManifest.xml:20:5-44
MERGED from [androidx.customview:customview:1.0.0] /home/jimmy/.gradle/caches/transforms-2/files-2.1/5c1a7954a89b9b8fe01f5627a31f5cee/AndroidManifest.xml:20:5-44
MERGED from [androidx.swiperefreshlayout:swiperefreshlayout:1.0.0] /home/jimmy/.gradle/caches/transforms-2/files-2.1/f3aac72a8f957709a447a6e8f8bcc415/AndroidManifest.xml:20:5-44
MERGED from [androidx.swiperefreshlayout:swiperefreshlayout:1.0.0] /home/jimmy/.gradle/caches/transforms-2/files-2.1/f3aac72a8f957709a447a6e8f8bcc415/AndroidManifest.xml:20:5-44
MERGED from [androidx.asynclayoutinflater:asynclayoutinflater:1.0.0] /home/jimmy/.gradle/caches/transforms-2/files-2.1/cd4f41bc994658726063b15e642417a7/AndroidManifest.xml:20:5-44
MERGED from [androidx.asynclayoutinflater:asynclayoutinflater:1.0.0] /home/jimmy/.gradle/caches/transforms-2/files-2.1/cd4f41bc994658726063b15e642417a7/AndroidManifest.xml:20:5-44
MERGED from [androidx.core:core:1.0.1] /home/jimmy/.gradle/caches/transforms-2/files-2.1/b1348f3803dd3ff047dc8b46ffc000eb/AndroidManifest.xml:20:5-44
MERGED from [androidx.core:core:1.0.1] /home/jimmy/.gradle/caches/transforms-2/files-2.1/b1348f3803dd3ff047dc8b46ffc000eb/AndroidManifest.xml:20:5-44
MERGED from [androidx.versionedparcelable:versionedparcelable:1.0.0] /home/jimmy/.gradle/caches/transforms-2/files-2.1/517465e01c643ce10737a7e15ef11347/AndroidManifest.xml:20:5-44
MERGED from [androidx.versionedparcelable:versionedparcelable:1.0.0] /home/jimmy/.gradle/caches/transforms-2/files-2.1/517465e01c643ce10737a7e15ef11347/AndroidManifest.xml:20:5-44
MERGED from [androidx.cursoradapter:cursoradapter:1.0.0] /home/jimmy/.gradle/caches/transforms-2/files-2.1/8f95613598a431b125eed32ae5fdac72/AndroidManifest.xml:20:5-44
MERGED from [androidx.cursoradapter:cursoradapter:1.0.0] /home/jimmy/.gradle/caches/transforms-2/files-2.1/8f95613598a431b125eed32ae5fdac72/AndroidManifest.xml:20:5-44
MERGED from [androidx.lifecycle:lifecycle-runtime:2.0.0] /home/jimmy/.gradle/caches/transforms-2/files-2.1/68479e334b2782566cfd9b55edccb61d/AndroidManifest.xml:20:5-44
MERGED from [androidx.lifecycle:lifecycle-runtime:2.0.0] /home/jimmy/.gradle/caches/transforms-2/files-2.1/68479e334b2782566cfd9b55edccb61d/AndroidManifest.xml:20:5-44
MERGED from [androidx.documentfile:documentfile:1.0.0] /home/jimmy/.gradle/caches/transforms-2/files-2.1/6deb256319ab8a7505775c773d8aee9c/AndroidManifest.xml:20:5-44
MERGED from [androidx.documentfile:documentfile:1.0.0] /home/jimmy/.gradle/caches/transforms-2/files-2.1/6deb256319ab8a7505775c773d8aee9c/AndroidManifest.xml:20:5-44
MERGED from [androidx.localbroadcastmanager:localbroadcastmanager:1.0.0] /home/jimmy/.gradle/caches/transforms-2/files-2.1/4d8e628e8aefb8122a8499e03c1a760c/AndroidManifest.xml:20:5-44
MERGED from [androidx.localbroadcastmanager:localbroadcastmanager:1.0.0] /home/jimmy/.gradle/caches/transforms-2/files-2.1/4d8e628e8aefb8122a8499e03c1a760c/AndroidManifest.xml:20:5-44
MERGED from [androidx.print:print:1.0.0] /home/jimmy/.gradle/caches/transforms-2/files-2.1/5a8f651c30fda4031f4c9cce65a085e3/AndroidManifest.xml:20:5-44
MERGED from [androidx.print:print:1.0.0] /home/jimmy/.gradle/caches/transforms-2/files-2.1/5a8f651c30fda4031f4c9cce65a085e3/AndroidManifest.xml:20:5-44
MERGED from [androidx.lifecycle:lifecycle-viewmodel:2.0.0] /home/jimmy/.gradle/caches/transforms-2/files-2.1/413ebdc48e5535042727958fab908fbd/AndroidManifest.xml:20:5-44
MERGED from [androidx.lifecycle:lifecycle-viewmodel:2.0.0] /home/jimmy/.gradle/caches/transforms-2/files-2.1/413ebdc48e5535042727958fab908fbd/AndroidManifest.xml:20:5-44
MERGED from [androidx.lifecycle:lifecycle-livedata:2.0.0] /home/jimmy/.gradle/caches/transforms-2/files-2.1/eb12e26f7414a42189c5fcf023e5b20d/AndroidManifest.xml:20:5-44
MERGED from [androidx.lifecycle:lifecycle-livedata:2.0.0] /home/jimmy/.gradle/caches/transforms-2/files-2.1/eb12e26f7414a42189c5fcf023e5b20d/AndroidManifest.xml:20:5-44
MERGED from [androidx.lifecycle:lifecycle-livedata-core:2.0.0] /home/jimmy/.gradle/caches/transforms-2/files-2.1/39073f9813d11de99c151ce6bfd09211/AndroidManifest.xml:20:5-44
MERGED from [androidx.lifecycle:lifecycle-livedata-core:2.0.0] /home/jimmy/.gradle/caches/transforms-2/files-2.1/39073f9813d11de99c151ce6bfd09211/AndroidManifest.xml:20:5-44
MERGED from [androidx.arch.core:core-runtime:2.0.0] /home/jimmy/.gradle/caches/transforms-2/files-2.1/70a5806b013ce239e3daa36981202dcd/AndroidManifest.xml:20:5-44
MERGED from [androidx.arch.core:core-runtime:2.0.0] /home/jimmy/.gradle/caches/transforms-2/files-2.1/70a5806b013ce239e3daa36981202dcd/AndroidManifest.xml:20:5-44
MERGED from [androidx.interpolator:interpolator:1.0.0] /home/jimmy/.gradle/caches/transforms-2/files-2.1/b4c720013398b3bf7f162467928a7a1c/AndroidManifest.xml:20:5-44
MERGED from [androidx.interpolator:interpolator:1.0.0] /home/jimmy/.gradle/caches/transforms-2/files-2.1/b4c720013398b3bf7f162467928a7a1c/AndroidManifest.xml:20:5-44
MERGED from [com.facebook.fresco:fbcore:2.0.0] /home/jimmy/.gradle/caches/transforms-2/files-2.1/f4859e76bb49e1584bedfcaf004e5c46/AndroidManifest.xml:5:5-7:41
MERGED from [com.facebook.fresco:fbcore:2.0.0] /home/jimmy/.gradle/caches/transforms-2/files-2.1/f4859e76bb49e1584bedfcaf004e5c46/AndroidManifest.xml:5:5-7:41
INJECTED from /home/jimmy/Documents/JavaScript/APP/Test/android/app/src/debug/AndroidManifest.xml
INJECTED from /home/jimmy/Documents/JavaScript/APP/Test/android/app/src/debug/AndroidManifest.xml
	android:targetSdkVersion
		INJECTED from /home/jimmy/Documents/JavaScript/APP/Test/android/app/src/main/AndroidManifest.xml
		INJECTED from /home/jimmy/Documents/JavaScript/APP/Test/android/app/src/debug/AndroidManifest.xml
	android:minSdkVersion
		INJECTED from /home/jimmy/Documents/JavaScript/APP/Test/android/app/src/main/AndroidManifest.xml
		INJECTED from /home/jimmy/Documents/JavaScript/APP/Test/android/app/src/debug/AndroidManifest.xml
uses-permission#android.permission.SYSTEM_ALERT_WINDOW
ADDED from /home/jimmy/Documents/JavaScript/APP/Test/android/app/src/debug/AndroidManifest.xml:5:5-77
	android:name
		ADDED from /home/jimmy/Documents/JavaScript/APP/Test/android/app/src/debug/AndroidManifest.xml:5:22-75
uses-permission#android.permission.WRITE_EXTERNAL_STORAGE
ADDED from [:react-native-fs] /home/jimmy/Documents/JavaScript/APP/Test/node_modules/react-native-fs/android/build/intermediates/library_manifest/debug/AndroidManifest.xml:11:5-81
MERGED from [:rn-fetch-blob] /home/jimmy/Documents/JavaScript/APP/Test/node_modules/rn-fetch-blob/android/build/intermediates/library_manifest/debug/AndroidManifest.xml:33:5-81
MERGED from [:rn-fetch-blob] /home/jimmy/Documents/JavaScript/APP/Test/node_modules/rn-fetch-blob/android/build/intermediates/library_manifest/debug/AndroidManifest.xml:33:5-81
	android:name
		ADDED from [:react-native-fs] /home/jimmy/Documents/JavaScript/APP/Test/node_modules/react-native-fs/android/build/intermediates/library_manifest/debug/AndroidManifest.xml:11:22-78
provider#com.imagepicker.FileProvider
ADDED from [:react-native-image-picker] /home/jimmy/Documents/JavaScript/APP/Test/node_modules/react-native-image-picker/android/build/intermediates/library_manifest/debug/AndroidManifest.xml:10:9-18:20
	android:grantUriPermissions
		ADDED from [:react-native-image-picker] /home/jimmy/Documents/JavaScript/APP/Test/node_modules/react-native-image-picker/android/build/intermediates/library_manifest/debug/AndroidManifest.xml:14:13-47
	android:authorities
		ADDED from [:react-native-image-picker] /home/jimmy/Documents/JavaScript/APP/Test/node_modules/react-native-image-picker/android/build/intermediates/library_manifest/debug/AndroidManifest.xml:12:13-60
	android:exported
		ADDED from [:react-native-image-picker] /home/jimmy/Documents/JavaScript/APP/Test/node_modules/react-native-image-picker/android/build/intermediates/library_manifest/debug/AndroidManifest.xml:13:13-37
	android:name
		ADDED from [:react-native-image-picker] /home/jimmy/Documents/JavaScript/APP/Test/node_modules/react-native-image-picker/android/build/intermediates/library_manifest/debug/AndroidManifest.xml:11:13-56
meta-data#android.support.FILE_PROVIDER_PATHS
ADDED from [:react-native-image-picker] /home/jimmy/Documents/JavaScript/APP/Test/node_modules/react-native-image-picker/android/build/intermediates/library_manifest/debug/AndroidManifest.xml:15:13-17:58
	android:resource
		ADDED from [:react-native-image-picker] /home/jimmy/Documents/JavaScript/APP/Test/node_modules/react-native-image-picker/android/build/intermediates/library_manifest/debug/AndroidManifest.xml:17:17-55
	android:name
		ADDED from [:react-native-image-picker] /home/jimmy/Documents/JavaScript/APP/Test/node_modules/react-native-image-picker/android/build/intermediates/library_manifest/debug/AndroidManifest.xml:16:17-67
uses-permission#com.android.vending.CHECK_LICENSE
ADDED from [:rn-fetch-blob] /home/jimmy/Documents/JavaScript/APP/Test/node_modules/rn-fetch-blob/android/build/intermediates/library_manifest/debug/AndroidManifest.xml:12:5-73
	android:name
		ADDED from [:rn-fetch-blob] /home/jimmy/Documents/JavaScript/APP/Test/node_modules/rn-fetch-blob/android/build/intermediates/library_manifest/debug/AndroidManifest.xml:12:22-70
uses-permission#android.permission.WAKE_LOCK
ADDED from [:rn-fetch-blob] /home/jimmy/Documents/JavaScript/APP/Test/node_modules/rn-fetch-blob/android/build/intermediates/library_manifest/debug/AndroidManifest.xml:21:5-68
	android:name
		ADDED from [:rn-fetch-blob] /home/jimmy/Documents/JavaScript/APP/Test/node_modules/rn-fetch-blob/android/build/intermediates/library_manifest/debug/AndroidManifest.xml:21:22-65
uses-permission#android.permission.ACCESS_NETWORK_STATE
ADDED from [:rn-fetch-blob] /home/jimmy/Documents/JavaScript/APP/Test/node_modules/rn-fetch-blob/android/build/intermediates/library_manifest/debug/AndroidManifest.xml:27:5-79
	android:name
		ADDED from [:rn-fetch-blob] /home/jimmy/Documents/JavaScript/APP/Test/node_modules/rn-fetch-blob/android/build/intermediates/library_manifest/debug/AndroidManifest.xml:27:22-76
uses-permission#android.permission.ACCESS_WIFI_STATE
ADDED from [:rn-fetch-blob] /home/jimmy/Documents/JavaScript/APP/Test/node_modules/rn-fetch-blob/android/build/intermediates/library_manifest/debug/AndroidManifest.xml:30:5-76
	android:name
		ADDED from [:rn-fetch-blob] /home/jimmy/Documents/JavaScript/APP/Test/node_modules/rn-fetch-blob/android/build/intermediates/library_manifest/debug/AndroidManifest.xml:30:22-73
provider#com.RNFetchBlob.Utils.FileProvider
ADDED from [:rn-fetch-blob] /home/jimmy/Documents/JavaScript/APP/Test/node_modules/rn-fetch-blob/android/build/intermediates/library_manifest/debug/AndroidManifest.xml:36:9-44:20
	android:grantUriPermissions
		ADDED from [:rn-fetch-blob] /home/jimmy/Documents/JavaScript/APP/Test/node_modules/rn-fetch-blob/android/build/intermediates/library_manifest/debug/AndroidManifest.xml:40:13-47
	android:authorities
		ADDED from [:rn-fetch-blob] /home/jimmy/Documents/JavaScript/APP/Test/node_modules/rn-fetch-blob/android/build/intermediates/library_manifest/debug/AndroidManifest.xml:38:13-60
	android:exported
		ADDED from [:rn-fetch-blob] /home/jimmy/Documents/JavaScript/APP/Test/node_modules/rn-fetch-blob/android/build/intermediates/library_manifest/debug/AndroidManifest.xml:39:13-37
	android:name
		ADDED from [:rn-fetch-blob] /home/jimmy/Documents/JavaScript/APP/Test/node_modules/rn-fetch-blob/android/build/intermediates/library_manifest/debug/AndroidManifest.xml:37:13-62
